Applied Multivariate Analysis – Home
…
prc2 <- select(qualityDs, quality) %>%
  bind_cols(as.data.frame(pcaResults$x)) %>%
  select(quality, PC1, PC2, PC3, PC4, PC5, PC6, PC7, PC8, PC9, PC10, PC11) 

prc2 <- prc2 %>%
  rename("Quality" = quality)

prc2

# A tibble: 1,599 × 12
   Quality    PC1    PC2    PC3      PC4     PC5    PC6    PC7    PC8      PC9
   <fct>    <dbl>  <dbl>  <dbl>    <dbl>   <dbl>  <dbl>  <dbl>  <dbl>    <dbl>
 1 5       -1.62   0.451 -1.77   0.0437  -0.0670 -0.914  0.161  0.282 -0.00510
 2 5       -0.799  1.86  -0.911  0.548    0.0184  0.929  1.01  -0.762  0.521  
 3 5       -0.748  0.882 -1.17   0.411    0.0435  0.401  0.539 -0.598  0.0868 
 4 6        2.36  -0.270  0.243 -0.928    1.50   -0.131 -0.344  0.455 -0.0915 
 5 5       -1.62   0.451 -1.77   0.0437  -0.0670 -0.914  0.161  0.282 -0.00510
 6 5       -1.58   0.569 -1.54   0.0237   0.110  -0.993  0.110  0.314  0.0343 
 7 5       -1.10   0.608 -1.08  -0.344    1.13    0.175 -0.261 -0.240  0.0273 
 8 7       -2.25  -0.417 -0.987 -0.00120  0.780   0.286 -0.131 -0.119  0.614  
 9 7       -1.09  -0.308 -1.52   0.00331  0.227  -0.512 -0.250 -0.439  0.399  
10 5        0.655  1.66   1.21  -0.824   -1.72   -0.476 -0.230 -0.839 -1.27   
# ℹ 1,589 more rows
# ℹ 2 more variables: PC10 <dbl>, PC11 <dbl>
…
